mc20_13TeV:mc20_13TeV.410276.aMcAtNloPythia8EvtGen_MEN30NLO_A14N23LO_ttee_mll_1_5.deriv.DAOD_PHYSLITE.e6087_s3681_r13144_r13146_p5855
mc20_13TeV:mc20_13TeV.410276.aMcAtNloPythia8EvtGen_MEN30NLO_A14N23LO_ttee_mll_1_5.deriv.DAOD_PHYSLITE.e6087_s3681_r13145_r13146_p5855
mc20_13TeV:mc20_13TeV.410276.aMcAtNloPythia8EvtGen_MEN30NLO_A14N23LO_ttee_mll_1_5.deriv.DAOD_PHYSLITE.e6087_s3681_r13167_r13146_p5855
mc20_13TeV:mc20_13TeV.410277.aMcAtNloPythia8EvtGen_MEN30NLO_A14N23LO_ttmumu_mll_1_5.deriv.DAOD_PHYSLITE.e6087_s3681_r13144_r13146_p5855
mc20_13TeV:mc20_13TeV.410277.aMcAtNloPythia8EvtGen_MEN30NLO_A14N23LO_ttmumu_mll_1_5.deriv.DAOD_PHYSLITE.e6087_s3681_r13145_r13146_p5855
mc20_13TeV:mc20_13TeV.410277.aMcAtNloPythia8EvtGen_MEN30NLO_A14N23LO_ttmumu_mll_1_5.deriv.DAOD_PHYSLITE.e6087_s3681_r13167_r13146_p5855
mc20_13TeV:mc20_13TeV.410278.aMcAtNloPythia8EvtGen_MEN30NLO_A14N23LO_tttautau_mll_1_5.deriv.DAOD_PHYSLITE.e6087_s3681_r13144_r13146_p5855
mc20_13TeV:mc20_13TeV.410278.aMcAtNloPythia8EvtGen_MEN30NLO_A14N23LO_tttautau_mll_1_5.deriv.DAOD_PHYSLITE.e6087_s3681_r13145_r13146_p5855
mc20_13TeV:mc20_13TeV.410278.aMcAtNloPythia8EvtGen_MEN30NLO_A14N23LO_tttautau_mll_1_5.deriv.DAOD_PHYSLITE.e6087_s3681_r13167_r13146_p5855
